/home/ise/git/uno-xt-next-core/cores/zxnext/synth-zxnext-issue2/work/unoxt_top.ngc 1640255091
../ipcore_dir/sdpbram_16k_8.ngc 1631347059
../ipcore_dir/sdpram_128_8.ngc 1631347059
../ipcore_dir/spram_320_9.ngc 1631347059
../ipcore_dir/sdpram_16_9.ngc 1631347059
OK
